{
  "object": "search",
  "order": "reverse_chronological",
  "scope": "charge",
  "query": "order",
  "filters": {
    "captured": "true"
  },
  "page": 2,
  "per_page": 30,
  "location": "/search",
  "total_pages": 2,
  "total": 45,
  "data": [
    {
      "object": "charge",
      "id": "chrg_test_57d5o5tbobwtucmjmd5",
      "livemode": false,
      "location": "/charges/chrg_test_57d5o5tbobwtucmjmd5",
      "amount": 12800,
      "currency": "thb",
      "description": "Charge a card from Magento that order id is 5",
      "status": "successful",
      "capture": false,
      "authorized": true,
      "reversed": false,
      "paid": true,
      "transaction": "trxn_test_57d5p4zy6inlrfvzlqs",
      "source_of_fund": "card",
      "refunded": 0,
      "refunds": {
        "object": "list",
        "from": "1970-01-01T00:00:00+00:00",
        "to": "2017-03-30T07:44:21+00:00",
        "offset": 0,
        "limit": 20,
        "total": 0,
        "order": null,
        "location": "/charges/chrg_test_57d5o5tbobwtucmjmd5/refunds",
        "data": [

        ]
      },
      "return_uri": null,
      "offsite": null,
      "offline": null,
      "reference": null,
      "authorize_uri": null,
      "failure_code": null,
      "failure_message": null,
      "card": {
        "object": "card",
        "id": "card_test_57d5nzpcxwp2m1qp6f5",
        "livemode": false,
        "country": "us",
        "city": null,
        "postal_code": null,
        "financing": "",
        "bank": "",
        "last_digits": "4242",
        "brand": "Visa",
        "expiration_month": 3,
        "expiration_year": 2018,
        "fingerprint": "WhPlRltXQvfe2G2AAzQriXcFWCu0dMpb/Tq4lhyFHVg=",
        "name": "omise team",
        "security_code_check": true,
        "created": "2017-03-20T05:08:39Z"
      },
      "customer": null,
      "ip": null,
      "dispute": null,
      "created": "2017-03-20T05:09:08Z"
    },
    {
      "object": "charge",
      "id": "chrg_test_57d5rqyc7rycjy4mzv6",
      "livemode": false,
      "location": "/charges/chrg_test_57d5rqyc7rycjy4mzv6",
      "amount": 12800,
      "currency": "thb",
      "description": "Charge a card from Magento that order id is 6",
      "status": "successful",
      "capture": false,
      "authorized": true,
      "reversed": false,
      "paid": true,
      "transaction": "trxn_test_57d5rxq8lhfgnacq5va",
      "source_of_fund": "card",
      "refunded": 0,
      "refunds": {
        "object": "list",
        "from": "1970-01-01T00:00:00+00:00",
        "to": "2017-03-30T07:44:21+00:00",
        "offset": 0,
        "limit": 20,
        "total": 0,
        "order": null,
        "location": "/charges/chrg_test_57d5rqyc7rycjy4mzv6/refunds",
        "data": [

        ]
      },
      "return_uri": null,
      "offsite": null,
      "offline": null,
      "reference": null,
      "authorize_uri": null,
      "failure_code": null,
      "failure_message": null,
      "card": {
        "object": "card",
        "id": "card_test_57d5rmgf3ufj2yhybno",
        "livemode": false,
        "country": "us",
        "city": null,
        "postal_code": null,
        "financing": "",
        "bank": "",
        "last_digits": "4242",
        "brand": "Visa",
        "expiration_month": 1,
        "expiration_year": 2019,
        "fingerprint": "WhPlRltXQvfe2G2AAzQriXcFWCu0dMpb/Tq4lhyFHVg=",
        "name": "omise t",
        "security_code_check": true,
        "created": "2017-03-20T05:18:59Z"
      },
      "customer": null,
      "ip": null,
      "dispute": null,
      "created": "2017-03-20T05:19:20Z"
    },
    {
      "object": "charge",
      "id": "chrg_test_57d5sh28hqau0xi5gkq",
      "livemode": false,
      "location": "/charges/chrg_test_57d5sh28hqau0xi5gkq",
      "amount": 12800,
      "currency": "thb",
      "description": "Charge a card from Magento that order id is 7",
      "status": "successful",
      "capture": false,
      "authorized": true,
      "reversed": false,
      "paid": true,
      "transaction": "trxn_test_57d5t08eo9vmqln22jp",
      "source_of_fund": "card",
      "refunded": 0,
      "refunds": {
        "object": "list",
        "from": "1970-01-01T00:00:00+00:00",
        "to": "2017-03-30T07:44:21+00:00",
        "offset": 0,
        "limit": 20,
        "total": 0,
        "order": null,
        "location": "/charges/chrg_test_57d5sh28hqau0xi5gkq/refunds",
        "data": [

        ]
      },
      "return_uri": null,
      "offsite": null,
      "offline": null,
      "reference": null,
      "authorize_uri": null,
      "failure_code": null,
      "failure_message": null,
      "card": {
        "object": "card",
        "id": "card_test_57d5sc2vi97b7r3bh4a",
        "livemode": false,
        "country": "us",
        "city": null,
        "postal_code": null,
        "financing": "",
        "bank": "",
        "last_digits": "4242",
        "brand": "Visa",
        "expiration_month": 1,
        "expiration_year": 2018,
        "fingerprint": "WhPlRltXQvfe2G2AAzQriXcFWCu0dMpb/Tq4lhyFHVg=",
        "name": "omise t",
        "security_code_check": true,
        "created": "2017-03-20T05:21:00Z"
      },
      "customer": null,
      "ip": null,
      "dispute": null,
      "created": "2017-03-20T05:21:23Z"
    },
    {
      "object": "charge",
      "id": "chrg_test_57d6hlbvtqhklnhia9z",
      "livemode": false,
      "location": "/charges/chrg_test_57d6hlbvtqhklnhia9z",
      "amount": 2500,
      "currency": "thb",
      "description": "Charge a card from Magento that order id is 1",
      "status": "successful",
      "capture": false,
      "authorized": true,
      "reversed": false,
      "paid": true,
      "transaction": "trxn_test_57d6id7eyzjlwcsttw9",
      "source_of_fund": "card",
      "refunded": 0,
      "refunds": {
        "object": "list",
        "from": "1970-01-01T00:00:00+00:00",
        "to": "2017-03-30T07:44:21+00:00",
        "offset": 0,
        "limit": 20,
        "total": 0,
        "order": null,
        "location": "/charges/chrg_test_57d6hlbvtqhklnhia9z/refunds",
        "data": [

        ]
      },
      "return_uri": null,
      "offsite": null,
      "offline": null,
      "reference": null,
      "authorize_uri": null,
      "failure_code": null,
      "failure_message": null,
      "card": {
        "object": "card",
        "id": "card_test_57d6h3cz6ej7b634z3h",
        "livemode": false,
        "country": "us",
        "city": null,
        "postal_code": null,
        "financing": "",
        "bank": "",
        "last_digits": "4242",
        "brand": "Visa",
        "expiration_month": 1,
        "expiration_year": 2018,
        "fingerprint": "WhPlRltXQvfe2G2AAzQriXcFWCu0dMpb/Tq4lhyFHVg=",
        "name": "omise team",
        "security_code_check": true,
        "created": "2017-03-20T06:31:20Z"
      },
      "customer": null,
      "ip": null,
      "dispute": null,
      "created": "2017-03-20T06:32:45Z"
    },
    {
      "object": "charge",
      "id": "chrg_test_57d76dxtu2hjn6qbhdd",
      "livemode": false,
      "location": "/charges/chrg_test_57d76dxtu2hjn6qbhdd",
      "amount": 2500,
      "currency": "thb",
      "description": "Charge a card from Magento that order id is 1",
      "status": "successful",
      "capture": false,
      "authorized": true,
      "reversed": false,
      "paid": true,
      "transaction": "trxn_test_57d76jbi0r4jeota73c",
      "source_of_fund": "card",
      "refunded": 0,
      "refunds": {
        "object": "list",
        "from": "1970-01-01T00:00:00+00:00",
        "to": "2017-03-30T07:44:21+00:00",
        "offset": 0,
        "limit": 20,
        "total": 0,
        "order": null,
        "location": "/charges/chrg_test_57d76dxtu2hjn6qbhdd/refunds",
        "data": [

        ]
      },
      "return_uri": null,
      "offsite": null,
      "offline": null,
      "reference": null,
      "authorize_uri": null,
      "failure_code": null,
      "failure_message": null,
      "card": {
        "object": "card",
        "id": "card_test_57d76den9k4gibske8w",
        "livemode": false,
        "country": "us",
        "city": null,
        "postal_code": null,
        "financing": "",
        "bank": "",
        "last_digits": "4242",
        "brand": "Visa",
        "expiration_month": 1,
        "expiration_year": 2018,
        "fingerprint": "WhPlRltXQvfe2G2AAzQriXcFWCu0dMpb/Tq4lhyFHVg=",
        "name": "omise test",
        "security_code_check": true,
        "created": "2017-03-20T07:43:08Z"
      },
      "customer": null,
      "ip": null,
      "dispute": null,
      "created": "2017-03-20T07:43:11Z"
    },
    {
      "object": "charge",
      "id": "chrg_test_57dj98d9g5c50zmptw4",
      "livemode": false,
      "location": "/charges/chrg_test_57dj98d9g5c50zmptw4",
      "amount": 100000,
      "currency": "thb",
      "description": "Order-384",
      "status": "successful",
      "capture": true,
      "authorized": true,
      "reversed": false,
      "paid": true,
      "transaction": "trxn_test_57dj98eclq6ecn5pee6",
      "source_of_fund": "card",
      "refunded": 0,
      "refunds": {
        "object": "list",
        "from": "1970-01-01T00:00:00+00:00",
        "to": "2017-03-30T07:44:21+00:00",
        "offset": 0,
        "limit": 20,
        "total": 0,
        "order": null,
        "location": "/charges/chrg_test_57dj98d9g5c50zmptw4/refunds",
        "data": [

        ]
      },
      "return_uri": null,
      "offsite": null,
      "offline": null,
      "reference": null,
      "authorize_uri": null,
      "failure_code": null,
      "failure_message": null,
      "card": {
        "object": "card",
        "id": "card_test_57dj98amoteqliaw9i2",
        "livemode": false,
        "country": "us",
        "city": "Bangkok",
        "postal_code": "10320",
        "financing": "",
        "bank": "",
        "last_digits": "4242",
        "brand": "Visa",
        "expiration_month": 10,
        "expiration_year": 2018,
        "fingerprint": "WhPlRltXQvfe2G2AAzQriXcFWCu0dMpb/Tq4lhyFHVg=",
        "name": "Somchai Prasert",
        "security_code_check": true,
        "created": "2017-03-21T04:18:28Z"
      },
      "customer": null,
      "ip": "127.0.0.1",
      "dispute": null,
      "created": "2017-03-21T04:18:28Z"
    },
    {
      "object": "charge",
      "id": "chrg_test_57dj9bz32qkxfak3tjv",
      "livemode": false,
      "location": "/charges/chrg_test_57dj9bz32qkxfak3tjv",
      "amount": 100000,
      "currency": "thb",
      "description": "Order-384",
      "status": "successful",
      "capture": true,
      "authorized": true,
      "reversed": false,
      "paid": true,
      "transaction": "trxn_test_57dj9c05y2kj7bvqrpk",
      "source_of_fund": "card",
      "refunded": 0,
      "refunds": {
        "object": "list",
        "from": "1970-01-01T00:00:00+00:00",
        "to": "2017-03-30T07:44:21+00:00",
        "offset": 0,
        "limit": 20,
        "total": 0,
        "order": null,
        "location": "/charges/chrg_test_57dj9bz32qkxfak3tjv/refunds",
        "data": [

        ]
      },
      "return_uri": null,
      "offsite": null,
      "offline": null,
      "reference": null,
      "authorize_uri": null,
      "failure_code": null,
      "failure_message": null,
      "card": {
        "object": "card",
        "id": "card_test_57dj9bx4hphr3s1kbdu",
        "livemode": false,
        "country": "us",
        "city": "Bangkok",
        "postal_code": "10320",
        "financing": "",
        "bank": "",
        "last_digits": "4242",
        "brand": "Visa",
        "expiration_month": 10,
        "expiration_year": 2018,
        "fingerprint": "WhPlRltXQvfe2G2AAzQriXcFWCu0dMpb/Tq4lhyFHVg=",
        "name": "Somchai Prasert",
        "security_code_check": true,
        "created": "2017-03-21T04:18:45Z"
      },
      "customer": null,
      "ip": "127.0.0.1",
      "dispute": null,
      "created": "2017-03-21T04:18:45Z"
    },
    {
      "object": "charge",
      "id": "chrg_test_57dj9ii5rnpatsua5y6",
      "livemode": false,
      "location": "/charges/chrg_test_57dj9ii5rnpatsua5y6",
      "amount": 100000,
      "currency": "thb",
      "description": "Order-384",
      "status": "successful",
      "capture": true,
      "authorized": true,
      "reversed": false,
      "paid": true,
      "transaction": "trxn_test_57dj9ijw5fn015eixow",
      "source_of_fund": "card",
      "refunded": 0,
      "refunds": {
        "object": "list",
        "from": "1970-01-01T00:00:00+00:00",
        "to": "2017-03-30T07:44:21+00:00",
        "offset": 0,
        "limit": 20,
        "total": 0,
        "order": null,
        "location": "/charges/chrg_test_57dj9ii5rnpatsua5y6/refunds",
        "data": [

        ]
      },
      "return_uri": null,
      "offsite": null,
      "offline": null,
      "reference": null,
      "authorize_uri": null,
      "failure_code": null,
      "failure_message": null,
      "card": {
        "object": "card",
        "id": "card_test_57dj9iftfhrkr8s15tm",
        "livemode": false,
        "country": "us",
        "city": "Bangkok",
        "postal_code": "10320",
        "financing": "",
        "bank": "",
        "last_digits": "4242",
        "brand": "Visa",
        "expiration_month": 10,
        "expiration_year": 2018,
        "fingerprint": "WhPlRltXQvfe2G2AAzQriXcFWCu0dMpb/Tq4lhyFHVg=",
        "name": "Somchai Prasert",
        "security_code_check": true,
        "created": "2017-03-21T04:19:16Z"
      },
      "customer": null,
      "ip": "127.0.0.1",
      "dispute": null,
      "created": "2017-03-21T04:19:16Z"
    },
    {
      "object": "charge",
      "id": "chrg_test_57djdcmq9jvz4m8z55f",
      "livemode": false,
      "location": "/charges/chrg_test_57djdcmq9jvz4m8z55f",
      "amount": 100000,
      "currency": "thb",
      "description": "Order-384",
      "status": "successful",
      "capture": true,
      "authorized": true,
      "reversed": false,
      "paid": true,
      "transaction": "trxn_test_57djdcobr1rs0qsadda",
      "source_of_fund": "card",
      "refunded": 0,
      "refunds": {
        "object": "list",
        "from": "1970-01-01T00:00:00+00:00",
        "to": "2017-03-30T07:44:21+00:00",
        "offset": 0,
        "limit": 20,
        "total": 0,
        "order": null,
        "location": "/charges/chrg_test_57djdcmq9jvz4m8z55f/refunds",
        "data": [

        ]
      },
      "return_uri": null,
      "offsite": null,
      "offline": null,
      "reference": null,
      "authorize_uri": null,
      "failure_code": null,
      "failure_message": null,
      "card": {
        "object": "card",
        "id": "card_test_57djdcidde01ndwd8d5",
        "livemode": false,
        "country": "us",
        "city": "Bangkok",
        "postal_code": "10320",
        "financing": "",
        "bank": "",
        "last_digits": "4242",
        "brand": "Visa",
        "expiration_month": 10,
        "expiration_year": 2018,
        "fingerprint": "WhPlRltXQvfe2G2AAzQriXcFWCu0dMpb/Tq4lhyFHVg=",
        "name": "Somchai Prasert",
        "security_code_check": true,
        "created": "2017-03-21T04:30:10Z"
      },
      "customer": null,
      "ip": "127.0.0.1",
      "dispute": null,
      "created": "2017-03-21T04:30:10Z"
    },
    {
      "object": "charge",
      "id": "chrg_test_57djei106fezh7fbq2k",
      "livemode": false,
      "location": "/charges/chrg_test_57djei106fezh7fbq2k",
      "amount": 100000,
      "currency": "thb",
      "description": "Order-384",
      "status": "successful",
      "capture": true,
      "authorized": true,
      "reversed": false,
      "paid": true,
      "transaction": "trxn_test_57djei2o763zanfvyo8",
      "source_of_fund": "card",
      "refunded": 0,
      "refunds": {
        "object": "list",
        "from": "1970-01-01T00:00:00+00:00",
        "to": "2017-03-30T07:44:21+00:00",
        "offset": 0,
        "limit": 20,
        "total": 0,
        "order": null,
        "location": "/charges/chrg_test_57djei106fezh7fbq2k/refunds",
        "data": [

        ]
      },
      "return_uri": null,
      "offsite": null,
      "offline": null,
      "reference": null,
      "authorize_uri": null,
      "failure_code": null,
      "failure_message": null,
      "card": {
        "object": "card",
        "id": "card_test_57djehwc4f2bigifozg",
        "livemode": false,
        "country": "us",
        "city": "Bangkok",
        "postal_code": "10320",
        "financing": "",
        "bank": "",
        "last_digits": "4242",
        "brand": "Visa",
        "expiration_month": 10,
        "expiration_year": 2018,
        "fingerprint": "WhPlRltXQvfe2G2AAzQriXcFWCu0dMpb/Tq4lhyFHVg=",
        "name": "Somchai Prasert",
        "security_code_check": true,
        "created": "2017-03-21T04:33:26Z"
      },
      "customer": null,
      "ip": "127.0.0.1",
      "dispute": null,
      "created": "2017-03-21T04:33:26Z"
    },
    {
      "object": "charge",
      "id": "chrg_test_57djgrmvfnop5ht0i4v",
      "livemode": false,
      "location": "/charges/chrg_test_57djgrmvfnop5ht0i4v",
      "amount": 100000,
      "currency": "thb",
      "description": "Order-384",
      "status": "successful",
      "capture": true,
      "authorized": true,
      "reversed": false,
      "paid": true,
      "transaction": "trxn_test_57djgrnzyranjm2wdck",
      "source_of_fund": "card",
      "refunded": 0,
      "refunds": {
        "object": "list",
        "from": "1970-01-01T00:00:00+00:00",
        "to": "2017-03-30T07:44:21+00:00",
        "offset": 0,
        "limit": 20,
        "total": 0,
        "order": null,
        "location": "/charges/chrg_test_57djgrmvfnop5ht0i4v/refunds",
        "data": [

        ]
      },
      "return_uri": null,
      "offsite": null,
      "offline": null,
      "reference": null,
      "authorize_uri": null,
      "failure_code": null,
      "failure_message": null,
      "card": {
        "object": "card",
        "id": "card_test_57djgrl6cyuplcbcdrm",
        "livemode": false,
        "country": "us",
        "city": "Bangkok",
        "postal_code": "10320",
        "financing": "",
        "bank": "",
        "last_digits": "4242",
        "brand": "Visa",
        "expiration_month": 10,
        "expiration_year": 2018,
        "fingerprint": "WhPlRltXQvfe2G2AAzQriXcFWCu0dMpb/Tq4lhyFHVg=",
        "name": "Somchai Prasert",
        "security_code_check": true,
        "created": "2017-03-21T04:39:52Z"
      },
      "customer": null,
      "ip": "127.0.0.1",
      "dispute": null,
      "created": "2017-03-21T04:39:53Z"
    },
    {
      "object": "charge",
      "id": "chrg_test_57djhv81r76cxn2zc60",
      "livemode": false,
      "location": "/charges/chrg_test_57djhv81r76cxn2zc60",
      "amount": 100000,
      "currency": "thb",
      "description": "Order-384",
      "status": "successful",
      "capture": true,
      "authorized": true,
      "reversed": false,
      "paid": true,
      "transaction": "trxn_test_57djhv92ergcarr8zzv",
      "source_of_fund": "card",
      "refunded": 0,
      "refunds": {
        "object": "list",
        "from": "1970-01-01T00:00:00+00:00",
        "to": "2017-03-30T07:44:21+00:00",
        "offset": 0,
        "limit": 20,
        "total": 0,
        "order": null,
        "location": "/charges/chrg_test_57djhv81r76cxn2zc60/refunds",
        "data": [

        ]
      },
      "return_uri": null,
      "offsite": null,
      "offline": null,
      "reference": null,
      "authorize_uri": null,
      "failure_code": null,
      "failure_message": null,
      "card": {
        "object": "card",
        "id": "card_test_57djhv3rv33aqpl8t62",
        "livemode": false,
        "country": "us",
        "city": "Bangkok",
        "postal_code": "10320",
        "financing": "",
        "bank": "",
        "last_digits": "4242",
        "brand": "Visa",
        "expiration_month": 10,
        "expiration_year": 2018,
        "fingerprint": "WhPlRltXQvfe2G2AAzQriXcFWCu0dMpb/Tq4lhyFHVg=",
        "name": "Somchai Prasert",
        "security_code_check": true,
        "created": "2017-03-21T04:42:59Z"
      },
      "customer": null,
      "ip": "127.0.0.1",
      "dispute": null,
      "created": "2017-03-21T04:43:00Z"
    },
    {
      "object": "charge",
      "id": "chrg_test_57dji0posqsbrhtr133",
      "livemode": false,
      "location": "/charges/chrg_test_57dji0posqsbrhtr133",
      "amount": 100000,
      "currency": "thb",
      "description": "Order-384",
      "status": "successful",
      "capture": true,
      "authorized": true,
      "reversed": false,
      "paid": true,
      "transaction": "trxn_test_57dji0rcgmueznyn0yr",
      "source_of_fund": "card",
      "refunded": 0,
      "refunds": {
        "object": "list",
        "from": "1970-01-01T00:00:00+00:00",
        "to": "2017-03-30T07:44:21+00:00",
        "offset": 0,
        "limit": 20,
        "total": 0,
        "order": null,
        "location": "/charges/chrg_test_57dji0posqsbrhtr133/refunds",
        "data": [

        ]
      },
      "return_uri": null,
      "offsite": null,
      "offline": null,
      "reference": null,
      "authorize_uri": null,
      "failure_code": null,
      "failure_message": null,
      "card": {
        "object": "card",
        "id": "card_test_57dji0nl917e6czoko7",
        "livemode": false,
        "country": "us",
        "city": "Bangkok",
        "postal_code": "10320",
        "financing": "",
        "bank": "",
        "last_digits": "4242",
        "brand": "Visa",
        "expiration_month": 10,
        "expiration_year": 2018,
        "fingerprint": "WhPlRltXQvfe2G2AAzQriXcFWCu0dMpb/Tq4lhyFHVg=",
        "name": "Somchai Prasert",
        "security_code_check": true,
        "created": "2017-03-21T04:43:26Z"
      },
      "customer": null,
      "ip": "127.0.0.1",
      "dispute": null,
      "created": "2017-03-21T04:43:26Z"
    },
    {
      "object": "charge",
      "id": "chrg_test_57dw5hr42c9h6x2kjxt",
      "livemode": false,
      "location": "/charges/chrg_test_57dw5hr42c9h6x2kjxt",
      "amount": 10600,
      "currency": "thb",
      "description": "Charge a card from OpenCart that order id is 0217073 from chaiwat@omise.co",
      "status": "successful",
      "capture": true,
      "authorized": true,
      "reversed": false,
      "paid": true,
      "transaction": "trxn_test_57dw5hsvjknnvvhdwju",
      "source_of_fund": "card",
      "refunded": 0,
      "refunds": {
        "object": "list",
        "from": "1970-01-01T00:00:00+00:00",
        "to": "2017-03-30T07:44:21+00:00",
        "offset": 0,
        "limit": 20,
        "total": 0,
        "order": null,
        "location": "/charges/chrg_test_57dw5hr42c9h6x2kjxt/refunds",
        "data": [

        ]
      },
      "return_uri": "http://opencart20.lvh.me:8080/index.php?route=payment/omise/checkoutcallback&order_id=3",
      "offsite": null,
      "offline": null,
      "reference": "paym_test_57dw5hrdn30s9g7uh0a",
      "authorize_uri": "https://api.omise.co/payments/paym_test_57dw5hrdn30s9g7uh0a/authorize",
      "failure_code": null,
      "failure_message": null,
      "card": {
        "object": "card",
        "id": "card_test_57dw5ho2sw3die1mk9c",
        "livemode": false,
        "country": "us",
        "city": null,
        "postal_code": null,
        "financing": "",
        "bank": "",
        "last_digits": "4242",
        "brand": "Visa",
        "expiration_month": 3,
        "expiration_year": 2019,
        "fingerprint": "WhPlRltXQvfe2G2AAzQriXcFWCu0dMpb/Tq4lhyFHVg=",
        "name": "omise test",
        "security_code_check": true,
        "created": "2017-03-22T02:17:19Z"
      },
      "customer": null,
      "ip": null,
      "dispute": null,
      "created": "2017-03-22T02:17:19Z"
    },
    {
      "object": "charge",
      "id": "chrg_test_57dwbje7f62ebkl6b5y",
      "livemode": false,
      "location": "/charges/chrg_test_57dwbje7f62ebkl6b5y",
      "amount": 2500,
      "currency": "thb",
      "description": "Charge a card from Magento that order id is 2",
      "status": "successful",
      "capture": true,
      "authorized": true,
      "reversed": false,
      "paid": true,
      "transaction": "trxn_test_57dwblvwbafoanzj9ga",
      "source_of_fund": "offsite",
      "refunded": 0,
      "refunds": {
        "object": "list",
        "from": "1970-01-01T00:00:00+00:00",
        "to": "2017-03-30T07:44:21+00:00",
        "offset": 0,
        "limit": 20,
        "total": 0,
        "order": null,
        "location": "/charges/chrg_test_57dwbje7f62ebkl6b5y/refunds",
        "data": [

        ]
      },
      "return_uri": "http://magento.lvh.me:8080/omise/callback_validateoffsiteinternetbanking/?order_id=100000002",
      "offsite": "internet_banking_scb",
      "offline": null,
      "reference": "ofsp_test_57dwbjeccjlfnd3ir10",
      "authorize_uri": "https://pay.omise.co/offsites/ofsp_test_57dwbjeccjlfnd3ir10/pay",
      "failure_code": null,
      "failure_message": null,
      "card": null,
      "customer": null,
      "ip": null,
      "dispute": null,
      "created": "2017-03-22T02:34:30Z"
    }
  ]
}
